R data structure with stringr, forcats, lubridate, and tidyr
…
# Setting factor levels
.panel1-releveling-rotate[

```r
ds <- ds %>% select(name, eye_f)
*ds %>% mutate(eye_f = factor(eye_f, levels = c("blue", "brown")))
```
]
 
.panel2-releveling-rotate[

```
# A tibble: 87 × 2
   name               eye_f
   <chr>              <fct>
 1 Luke Skywalker     blue 
 2 C-3PO              <NA> 
 3 R2-D2              <NA> 
 4 Darth Vader        <NA> 
 5 Leia Organa        brown
 6 Owen Lars          blue 
 7 Beru Whitesun lars blue 
 8 R5-D4              <NA> 
 9 Biggs Darklighter  brown
10 Obi-Wan Kenobi     <NA> 
# … with 77 more rows
```
…
# Setting factor levels
.panel1-releveling-rotate[

```r
ds <- ds %>% select(name, eye_f)
*ds %>% mutate(eye_f = factor(eye_f, levels = c("blue", "brown")))
```
]
 
.panel2-releveling-rotate[

```
# A tibble: 87 × 2
   name               eye_f
   <chr>              <fct>
 1 Luke Skywalker     blue 
 2 C-3PO              <NA> 
 3 R2-D2              <NA> 
 4 Darth Vader        <NA> 
 5 Leia Organa        brown
 6 Owen Lars          blue 
 7 Beru Whitesun lars blue 
 8 R5-D4              <NA> 
 9 Biggs Darklighter  brown
10 Obi-Wan Kenobi     <NA> 
# … with 77 more rows
```
…
# Setting factor levels
.panel1-releveling-rotate[

```r
ds <- ds %>% select(name, eye_f)
*ds %>% mutate(eye_f = fct_lump(eye_f, n = 3))
```
]
 
.panel2-releveling-rotate[

```
# A tibble: 87 × 2
   name               eye_f 
   <chr>              <fct> 
 1 Luke Skywalker     blue  
 2 C-3PO              yellow
 3 R2-D2              Other 
 4 Darth Vader        yellow
 5 Leia Organa        brown 
 6 Owen Lars          blue  
 7 Beru Whitesun lars blue  
 8 R5-D4              Other 
 9 Biggs Darklighter  brown 
10 Obi-Wan Kenobi     Other 
# … with 77 more rows
```
…
